\relax 
\providecommand\hyper@newdestlabel[2]{}
\providecommand\zref@newlabel[2]{}
\providecommand\HyperFirstAtBeginDocument{\AtBeginDocument}
\HyperFirstAtBeginDocument{\ifx\hyper@anchor\@undefined
\global\let\oldcontentsline\contentsline
\gdef\contentsline#1#2#3#4{\oldcontentsline{#1}{#2}{#3}}
\global\let\oldnewlabel\newlabel
\gdef\newlabel#1#2{\newlabelxx{#1}#2}
\gdef\newlabelxx#1#2#3#4#5#6{\oldnewlabel{#1}{{#2}{#3}}}
\AtEndDocument{\ifx\hyper@anchor\@undefined
\let\contentsline\oldcontentsline
\let\newlabel\oldnewlabel
\fi}
\fi}
\global\let\hyper@last\relax 
\gdef\HyperFirstAtBeginDocument#1{#1}
\providecommand*\HyPL@Entry[1]{}
\HyPL@Entry{0<</S/D>>}
\HyPL@Entry{1<</S/D>>}
\@writefile{toc}{\contentsline {section}{\numberline {1}پیاده‌سازی شبکه‌ی عصبی}{1}{section.0.1}}
\@writefile{lol}{\contentsline {lstlisting}{codes/Input.py}{1}{lstlisting.0.-1}}
\@writefile{lol}{\contentsline {lstlisting}{codes/Neuron.py}{1}{lstlisting.0.-2}}
\@writefile{lol}{\contentsline {lstlisting}{codes/PerformanceElem.py}{1}{lstlisting.0.-3}}
\@writefile{toc}{\contentsline {section}{\numberline {2}تست کردن شبکه}{2}{section.0.2}}
\@writefile{lol}{\contentsline {lstlisting}{codes/simple.out}{2}{lstlisting.0.-4}}
\@writefile{lof}{\contentsline {figure}{\numberline {1}{\ignorespaces \lr {OR decision boundary}}}{3}{figure.0.1}}
\@writefile{lof}{\contentsline {figure}{\numberline {2}{\ignorespaces \lr {AND decision boundary}}}{3}{figure.0.2}}
\@writefile{toc}{\contentsline {section}{\numberline {3}پیاده‌سازی شبکه‌ی عصبی دو لایه}{4}{section.0.3}}
\@writefile{lol}{\contentsline {lstlisting}{codes/two\textunderscore layer.py}{4}{lstlisting.0.-5}}
\@writefile{lol}{\contentsline {lstlisting}{codes/two\textunderscore layer.out}{4}{lstlisting.0.-6}}
\@writefile{lof}{\contentsline {figure}{\numberline {3}{\ignorespaces \lr {OR decision boundary}}}{10}{figure.0.3}}
\@writefile{lof}{\contentsline {figure}{\numberline {4}{\ignorespaces \lr {AND decision boundary}}}{11}{figure.0.4}}
\@writefile{lof}{\contentsline {figure}{\numberline {5}{\ignorespaces \lr {NOT EQUAL decision boundary}}}{11}{figure.0.5}}
\@writefile{lof}{\contentsline {figure}{\numberline {6}{\ignorespaces \lr {EQUAL decision boundary}}}{12}{figure.0.6}}
\@writefile{lof}{\contentsline {figure}{\numberline {7}{\ignorespaces \lr {DIAGONAL BAND decision boundary}}}{12}{figure.0.7}}
\@writefile{lof}{\contentsline {figure}{\numberline {8}{\ignorespaces \lr {INVERSE DIAGONAL BAND decision boundary}}}{13}{figure.0.8}}
\@writefile{lof}{\contentsline {figure}{\numberline {9}{\ignorespaces \lr {HORIZONTAL BANDS decision boundary}}}{13}{figure.0.9}}
\@writefile{lof}{\contentsline {figure}{\numberline {10}{\ignorespaces \lr {VERTICAL BANDS decision boundary}}}{14}{figure.0.10}}
\@writefile{toc}{\contentsline {section}{\numberline {4}بیش‌برازش}{14}{section.0.4}}
\@writefile{lof}{\contentsline {figure}{\numberline {11}{\ignorespaces \lr {TWO MOONS 100 decision boundary}}}{15}{figure.0.11}}
\@writefile{lof}{\contentsline {figure}{\numberline {12}{\ignorespaces \lr {TWO MOONS 500 decision boundary}}}{15}{figure.0.12}}
\@writefile{lof}{\contentsline {figure}{\numberline {13}{\ignorespaces \lr {TWO MOONS 1000 decision boundary}}}{16}{figure.0.13}}
