----------------------------------------
Training on OR data
iter 1967: training complete.
mean-abs-performance threshold 0.0001 reached (0.000100)
weights: [wA(-3.03), w1A(-5.19), w2A(-5.22), wB(0.75), w1B(2.03), w2B(1.98), wAC(-2.19), wAC(-9.23), wBC(3.56)]
Trained weights:
Weight 'wA': -3.033595
Weight 'w1A': -5.191019
Weight 'w2A': -5.221685
Weight 'wB': 0.751714
Weight 'w1B': 2.026931
Weight 'w2B': 1.977390
Weight 'wAC': -2.194035
Weight 'wAC': -9.229062
Weight 'wBC': 3.558560
Testing on OR test-data
Finite Difference result: True
test((0.1, 0.1, 0)) returned: 0.011458520676734927 => 0 [correct]
Finite Difference result: True
test((0.1, 0.9, 1)) returned: 0.982277097139686 => 1 [correct]
Finite Difference result: True
test((0.9, 0.1, 1)) returned: 0.9823401573276112 => 1 [correct]
Finite Difference result: True
test((0.9, 0.9, 1)) returned: 0.9960970722068687 => 1 [correct]
Accuracy: 1.000000
----------------------------------------
Training on AND data
iter 2872: training complete.
mean-abs-performance threshold 0.0001 reached (0.000100)
weights: [wA(-6.46), w1A(-4.88), w2A(-5.07), wB(-1.12), w1B(-1.99), w2B(-1.37), wAC(-5.38), wAC(-10.49), wBC(-2.65)]
Trained weights:
Weight 'wA': -6.462356
Weight 'w1A': -4.882233
Weight 'w2A': -5.073080
Weight 'wB': -1.117736
Weight 'w1B': -1.985283
Weight 'w2B': -1.367818
Weight 'wAC': -5.382025
Weight 'wAC': -10.485835
Weight 'wBC': -2.652808
Testing on AND test-data
Finite Difference result: True
test((0.1, 0.1, 0)) returned: 0.0010270247812284418 => 0 [correct]
Finite Difference result: True
test((0.1, 0.9, 0)) returned: 0.015297096924963003 => 0 [correct]
Finite Difference result: True
test((0.9, 0.1, 0)) returned: 0.016243408564598855 => 0 [correct]
Finite Difference result: True
test((0.9, 0.9, 1)) returned: 0.9857908527098609 => 1 [correct]
Accuracy: 1.000000
----------------------------------------
Training on EQUAL data
iter 7639: training complete.
mean-abs-performance threshold 0.0001 reached (0.000100)
weights: [wA(-2.79), w1A(-6.75), w2A(-6.78), wB(-7.31), w1B(-4.91), w2B(-4.91), wAC(-4.85), wAC(10.27), wBC(-10.18)]
Trained weights:
Weight 'wA': -2.794549
Weight 'w1A': -6.747456
Weight 'w2A': -6.781582
Weight 'wB': -7.307357
Weight 'w1B': -4.905921
Weight 'w2B': -4.910897
Weight 'wAC': -4.846049
Weight 'wAC': 10.269060
Weight 'wBC': -10.179957
Testing on EQUAL test-data
Finite Difference result: True
test((0.1, 0.1, 1)) returned: 0.9520729744071752 => 1 [correct]
Finite Difference result: True
test((0.1, 0.9, 0)) returned: 0.013424564606528631 => 0 [correct]
Finite Difference result: True
test((0.9, 0.1, 0)) returned: 0.013451143515019406 => 0 [correct]
Finite Difference result: True
test((0.9, 0.9, 1)) returned: 0.9539830533413928 => 1 [correct]
Accuracy: 1.000000
----------------------------------------
Training on NOT_EQUAL data
iter 7639: training complete.
mean-abs-performance threshold 0.0001 reached (0.000100)
weights: [wA(-2.79), w1A(-6.75), w2A(-6.78), wB(-7.31), w1B(-4.91), w2B(-4.91), wAC(4.85), wAC(-10.27), wBC(10.18)]
Trained weights:
Weight 'wA': -2.794549
Weight 'w1A': -6.747456
Weight 'w2A': -6.781582
Weight 'wB': -7.307357
Weight 'w1B': -4.905921
Weight 'w2B': -4.910897
Weight 'wAC': 4.846049
Weight 'wAC': -10.269060
Weight 'wBC': 10.179957
Testing on NOT_EQUAL test-data
Finite Difference result: True
test((0.1, 0.1, 0)) returned: 0.047927025592825016 => 0 [correct]
Finite Difference result: True
test((0.1, 0.9, 1)) returned: 0.9865754353762202 => 1 [correct]
Finite Difference result: True
test((0.9, 0.1, 1)) returned: 0.9865488564508352 => 1 [correct]
Finite Difference result: True
test((0.9, 0.9, 0)) returned: 0.04601694449455125 => 0 [correct]
Accuracy: 1.000000
----------------------------------------
Training on horizontal-bands data
iter 1879: training complete.
mean-abs-performance threshold 0.0001 reached (0.000100)
weights: [wA(-2.90), w1A(0.26), w2A(-6.30), wB(-10.19), w1B(0.07), w2B(-4.20), wAC(5.03), wAC(-10.17), wBC(10.42)]
Trained weights:
Weight 'wA': -2.901654
Weight 'w1A': 0.259752
Weight 'w2A': -6.303266
Weight 'wB': -10.188501
Weight 'w1B': 0.074259
Weight 'w2B': -4.196649
Weight 'wAC': 5.030765
Weight 'wAC': -10.174927
Weight 'wBC': 10.424870
Testing on horizontal-bands test-data
Finite Difference result: True
test((1, 1.5, 1)) returned: 0.9944135265268136 => 1 [correct]
Finite Difference result: True
test((2, 1.5, 1)) returned: 0.9944581074559743 => 1 [correct]
Finite Difference result: True
test((3, 1.5, 1)) returned: 0.9944882096680301 => 1 [correct]
Finite Difference result: True
test((0, 1.5, 1)) returned: 0.9943558335527037 => 1 [correct]
Finite Difference result: True
test((4, 0, 0)) returned: 0.010079404625257794 => 0 [correct]
Finite Difference result: True
test((4, 4, 0)) returned: 0.006615667174753266 => 0 [correct]
Finite Difference result: True
test((-1, 0, 0)) returned: 0.016227068767621478 => 0 [correct]
Finite Difference result: True
test((-1, 4, 0)) returned: 0.006576921816589704 => 0 [correct]
Accuracy: 1.000000
----------------------------------------
Training on vertical-bands data
iter 1951: training complete.
mean-abs-performance threshold 0.0001 reached (0.000100)
weights: [wA(-10.01), w1A(-4.12), w2A(0.07), wB(-2.96), w1B(-6.60), w2B(0.33), wAC(5.08), wAC(10.50), wBC(-10.16)]
Trained weights:
Weight 'wA': -10.014296
Weight 'w1A': -4.121186
Weight 'w2A': 0.071837
Weight 'wB': -2.957541
Weight 'w1B': -6.595310
Weight 'w2B': 0.328358
Weight 'wAC': 5.084953
Weight 'wAC': 10.504953
Weight 'wBC': -10.159036
Testing on vertical-bands test-data
Finite Difference result: True
test((0, 1, 0)) returned: 0.01245427826305796 => 0 [correct]
Finite Difference result: True
test((0, 2, 0)) returned: 0.011284587078819545 => 0 [correct]
Finite Difference result: True
test((0, 1.5, 0)) returned: 0.011810324793844543 => 0 [correct]
Finite Difference result: True
test((1.5, 2, 1)) returned: 0.9945548267025138 => 1 [correct]
Finite Difference result: True
test((1.5, 5, 1)) returned: 0.9945828126854355 => 1 [correct]
Finite Difference result: True
test((1.5, 1, 1)) returned: 0.9945069389487248 => 1 [correct]
Finite Difference result: True
test((3, 1, 0)) returned: 0.016176492913210733 => 0 [correct]
Finite Difference result: True
test((3, 1.5, 0)) returned: 0.016698646065167515 => 0 [correct]
Finite Difference result: True
test((3, 2, 0)) returned: 0.01725347397475201 => 0 [correct]
Finite Difference result: True
test((1, 1.5, 1)) returned: 0.9931367416638617 => 1 [correct]
Finite Difference result: True
test((1, -1.5, 1)) returned: 0.9946594541505269 => 1 [correct]
Finite Difference result: True
test((2, 1.5, 1)) returned: 0.9825065026429434 => 1 [correct]
Finite Difference result: True
test((2, -1.5, 1)) returned: 0.9769631524488839 => 1 [correct]
Finite Difference result: True
test((4, 0, 0)) returned: 0.006251198281690746 => 0 [correct]
Finite Difference result: True
test((4, 4, 0)) returned: 0.006284806522636273 => 0 [correct]
Finite Difference result: True
test((-1, 0, 0)) returned: 0.008677358617665953 => 0 [correct]
Finite Difference result: True
test((-1, 4, 0)) returned: 0.008672840550222705 => 0 [correct]
Accuracy: 1.000000
----------------------------------------
Training on diagonal-band data
iter 1491: training complete.
mean-abs-performance threshold 0.0001 reached (0.000100)
weights: [wA(3.63), w1A(3.67), w2A(-3.92), wB(-3.29), w1B(3.97), w2B(-3.66), wAC(4.40), wAC(-9.03), wBC(8.79)]
Trained weights:
Weight 'wA': 3.632720
Weight 'w1A': 3.673811
Weight 'w2A': -3.917853
Weight 'wB': -3.294863
Weight 'w1B': 3.967260
Weight 'w2B': -3.655719
Weight 'wAC': 4.401011
Weight 'wAC': -9.031638
Weight 'wBC': 8.787502
Testing on diagonal-band test-data
Finite Difference result: True
test((-1, -1, 1)) returned: 0.9751121193139393 => 1 [correct]
Finite Difference result: True
test((5, 5, 1)) returned: 0.9859149806749911 => 1 [correct]
Finite Difference result: True
test((-2, -2, 1)) returned: 0.9690895491098497 => 1 [correct]
Finite Difference result: True
test((6, 6, 1)) returned: 0.9863683403400316 => 1 [correct]
Finite Difference result: True
test((3.5, 3.5, 1)) returned: 0.9848996675716718 => 1 [correct]
Finite Difference result: True
test((1.5, 1.5, 1)) returned: 0.9824384740864885 => 1 [correct]
Finite Difference result: True
test((4, 0, 0)) returned: 0.00951802552426242 => 0 [correct]
Finite Difference result: True
test((0, 4, 0)) returned: 0.012117597349653947 => 0 [correct]
Accuracy: 1.000000
----------------------------------------
Training on inverse-diagonal-band data
iter 1491: training complete.
mean-abs-performance threshold 0.0001 reached (0.000100)
weights: [wA(3.63), w1A(3.67), w2A(-3.92), wB(-3.29), w1B(3.97), w2B(-3.66), wAC(-4.40), wAC(9.03), wBC(-8.79)]
Trained weights:
Weight 'wA': 3.632720
Weight 'w1A': 3.673811
Weight 'w2A': -3.917853
Weight 'wB': -3.294863
Weight 'w1B': 3.967260
Weight 'w2B': -3.655719
Weight 'wAC': -4.401011
Weight 'wAC': 9.031638
Weight 'wBC': -8.787502
Testing on inverse-diagonal-band test-data
Finite Difference result: True
test((-1, -1, 0)) returned: 0.02488788068606077 => 0 [correct]
Finite Difference result: True
test((5, 5, 0)) returned: 0.014085019325008124 => 0 [correct]
Finite Difference result: True
test((-2, -2, 0)) returned: 0.030910450862165123 => 0 [correct]
Finite Difference result: True
test((6, 6, 0)) returned: 0.013631659660284972 => 0 [correct]
Finite Difference result: True
test((3.5, 3.5, 0)) returned: 0.015100332426929425 => 0 [correct]
Finite Difference result: True
test((1.5, 1.5, 0)) returned: 0.017561525905406206 => 0 [correct]
Finite Difference result: True
test((4, 0, 1)) returned: 0.990481975607012 => 1 [correct]
Finite Difference result: True
test((0, 4, 1)) returned: 0.9878824009744596 => 1 [correct]
Accuracy: 1.000000

